main/java/com/weatherapp/dto/WeatherDTO.class
main/java/com/weatherapp/dto/RegressionDataDTO.class
main/java/com/weatherapp/enums/Climate.class
main/java/com/weatherapp/util/CommonUtils.class
main/java/com/weatherapp/application/PredictWeatherMain.class
main/java/com/weatherapp/dto/ClimateDTO.class
main/java/com/weatherapp/exception/WeatherAppException.class
main/java/com/weatherapp/regression/LogisticRegression.class
main/java/com/weatherapp/loader/DataLoader.class
main/java/com/weatherapp/util/Constants.class
main/java/com/weatherapp/util/PropertyLoader.class
